stm32f4xx_hal_msp.c:71:6:HAL_MspInit	16	static
stm32f4xx_hal_msp.c:93:6:HAL_ADC_MspInit	48	static
stm32f4xx_hal_msp.c:158:6:HAL_ADC_MspDeInit	16	static
stm32f4xx_hal_msp.c:197:6:HAL_TIM_Base_MspInit	40	static
stm32f4xx_hal_msp.c:263:6:HAL_TIM_MspPostInit	48	static
stm32f4xx_hal_msp.c:326:6:HAL_TIM_Base_MspDeInit	16	static
stm32f4xx_hal_msp.c:398:6:HAL_UART_MspInit	48	static
stm32f4xx_hal_msp.c:474:6:HAL_UART_MspDeInit	16	static
